UPOWER/UPOWER_INSTRUCTION_MEM/t0050-hello.vcd
$date
	Sun Jun 14 14:15:07 2020
$end
$version
	Icarus Verilog
$end
$timescale
	1s
$end
$scope module cpu_tb $end
$var reg 1 ! clk $end
$var integer 32 " i [31:0] $end
$scope module mips1 $end
$var wire 4 # aluctl [3:0] $end
$var wire 2 $ aluop [1:0] $end
$var wire 2 % aluop_s3 [1:0] $end
$var wire 32 & alurslt [31:0] $end
$var wire 32 ' alurslt_s4 [31:0] $end
$var wire 32 ( alurslt_s5 [31:0] $end
$var wire 1 ) alusrc $end
$var wire 32 * alusrc_data2 [31:0] $end
$var wire 1 + alusrc_s3 $end
$var wire 32 , baddr_s2 [31:0] $end
$var wire 32 - baddr_s3 [31:0] $end
$var wire 32 . baddr_s4 [31:0] $end
$var wire 1 / branch_eq_s2 $end
$var wire 1 0 branch_eq_s3 $end
$var wire 1 1 branch_eq_s4 $end
$var wire 1 2 branch_ne_s2 $end
$var wire 1 3 branch_ne_s3 $end
$var wire 1 4 branch_ne_s4 $end
$var wire 1 5 clk $end
$var wire 32 6 data1 [31:0] $end
$var wire 32 7 data1_s3 [31:0] $end
$var wire 32 8 data2 [31:0] $end
$var wire 32 9 data2_s3 [31:0] $end
$var wire 32 : data2_s4 [31:0] $end
$var wire 6 ; funct [5:0] $end
$var wire 16 < imm [15:0] $end
$var wire 32 = inst [31:0] $end
$var wire 32 > inst_s2 [31:0] $end
$var wire 32 ? jaddr_s2 [31:0] $end
$var wire 32 @ jaddr_s3 [31:0] $end
$var wire 32 A jaddr_s4 [31:0] $end
$var wire 1 B jump_s2 $end
$var wire 1 C jump_s3 $end
$var wire 1 D jump_s4 $end
$var wire 1 E memread $end
$var wire 1 F memread_s3 $end
$var wire 1 G memread_s4 $end
$var wire 1 H memtoreg $end
$var wire 1 I memtoreg_s3 $end
$var wire 1 J memtoreg_s4 $end
$var wire 1 K memtoreg_s5 $end
$var wire 1 L memwrite $end
$var wire 1 M memwrite_s3 $end
$var wire 1 N memwrite_s4 $end
$var wire 6 O opcode [5:0] $end
$var wire 32 P pc4 [31:0] $end
$var wire 32 Q pc4_s2 [31:0] $end
$var wire 32 R pc4_s3 [31:0] $end
$var wire 5 S rd [4:0] $end
$var wire 5 T rd_s3 [4:0] $end
$var wire 32 U rdata [31:0] $end
$var wire 32 V rdata_s5 [31:0] $end
$var wire 1 W regdst $end
$var wire 1 X regdst_s3 $end
$var wire 1 Y regwrite $end
$var wire 1 Z regwrite_s3 $end
$var wire 1 [ regwrite_s4 $end
$var wire 1 \ regwrite_s5 $end
$var wire 5 ] rs [4:0] $end
$var wire 5 ^ rs_s3 [4:0] $end
$var wire 5 _ rt [4:0] $end
$var wire 5 ` rt_s3 [4:0] $end
$var wire 32 a seimm [31:0] $end
$var wire 32 b seimm_s3 [31:0] $end
$var wire 32 c seimm_sl2 [31:0] $end
$var wire 5 d shamt [4:0] $end
$var wire 32 e wrdata_s5 [31:0] $end
$var wire 5 f wrreg [4:0] $end
$var wire 5 g wrreg_s4 [4:0] $end
$var wire 5 h wrreg_s5 [4:0] $end
$var wire 1 i zero_s3 $end
$var wire 1 j zero_s4 $end
$var reg 1 k flush_s1 $end
$var reg 1 l flush_s2 $end
$var reg 1 m flush_s3 $end
$var reg 2 n forward_a [1:0] $end
$var reg 2 o forward_b [1:0] $end
$var reg 32 p fw_data1_s3 [31:0] $end
$var reg 32 q fw_data2_s3 [31:0] $end
$var reg 32 r pc [31:0] $end
$var reg 1 s pcsrc $end
$var reg 1 t stall_s1_s2 $end
$scope module regr_pc4_s2 $end
$var wire 1 u clear $end
$var wire 1 5 clk $end
$var wire 1 v hold $end
$var wire 32 w in [31:0] $end
$var reg 32 x out [31:0] $end
$upscope $end
$scope module im1 $end
$var wire 32 y addr [31:0] $end
$var wire 1 5 clk $end
$var wire 32 z data [31:0] $end
$upscope $end
$scope module regr_im_s2 $end
$var wire 1 u clear $end
$var wire 1 5 clk $end
$var wire 1 v hold $end
$var wire 32 { in [31:0] $end
$var reg 32 | out [31:0] $end
$upscope $end
$scope module regm1 $end
$var wire 1 5 clk $end
$var wire 32 } data1 [31:0] $end
$var wire 32 ~ data2 [31:0] $end
$var wire 5 !" read1 [4:0] $end
$var wire 5 "" read2 [4:0] $end
$var wire 1 \ regwrite $end
$var wire 32 #" wrdata [31:0] $end
$var wire 5 $" wrreg [4:0] $end
$var reg 32 %" _data1 [31:0] $end
$var reg 32 &" _data2 [31:0] $end
$upscope $end
$scope module regr_s2_rs $end
$var wire 1 '" clear $end
$var wire 1 5 clk $end
$var wire 1 v hold $end
$var wire 5 (" in [4:0] $end
$var reg 5 )" out [4:0] $end
$upscope $end
$scope module reg_s2_mem $end
$var wire 1 *" clear $end
$var wire 1 5 clk $end
$var wire 1 v hold $end
$var wire 64 +" in [63:0] $end
$var reg 64 ," out [63:0] $end
$upscope $end
$scope module reg_s2_seimm $end
$var wire 1 *" clear $end
$var wire 1 5 clk $end
$var wire 1 v hold $end
$var wire 32 -" in [31:0] $end
$var reg 32 ." out [31:0] $end
$upscope $end
$scope module reg_s2_rt_rd $end
$var wire 1 *" clear $end
$var wire 1 5 clk $end
$var wire 1 v hold $end
$var wire 10 /" in [9:0] $end
$var reg 10 0" out [9:0] $end
$upscope $end
$scope module reg_pc4_s2 $end
$var wire 1 1" clear $end
$var wire 1 5 clk $end
$var wire 1 v hold $end
$var wire 32 2" in [31:0] $end
$var reg 32 3" out [31:0] $end
$upscope $end
$scope module ctl1 $end
$var wire 6 4" opcode [5:0] $end
$var reg 2 5" aluop [1:0] $end
$var reg 1 6" alusrc $end
$var reg 1 7" branch_eq $end
$var reg 1 8" branch_ne $end
$var reg 1 9" jump $end
$var reg 1 :" memread $end
$var reg 1 ;" memtoreg $end
$var reg 1 <" memwrite $end
$var reg 1 =" regdst $end
$var reg 1 >" regwrite $end
$upscope $end
$scope module reg_s2_control $end
$var wire 1 v clear $end
$var wire 1 5 clk $end
$var wire 1 ?" hold $end
$var wire 8 @" in [7:0] $end
$var reg 8 A" out [7:0] $end
$upscope $end
$scope module branch_s2_s3 $end
$var wire 1 *" clear $end
$var wire 1 5 clk $end
$var wire 1 B" hold $end
$var wire 2 C" in [1:0] $end
$var reg 2 D" out [1:0] $end
$upscope $end
$scope module baddr_s2_s3 $end
$var wire 1 *" clear $end
$var wire 1 5 clk $end
$var wire 1 E" hold $end
$var wire 32 F" in [31:0] $end
$var reg 32 G" out [31:0] $end
$upscope $end
$scope module reg_jump_s3 $end
$var wire 1 *" clear $end
$var wire 1 5 clk $end
$var wire 1 H" hold $end
$var wire 1 B in $end
$var reg 1 I" out $end
$upscope $end
$scope module reg_jaddr_s3 $end
$var wire 1 *" clear $end
$var wire 1 5 clk $end
$var wire 1 J" hold $end
$var wire 32 K" in [31:0] $end
$var reg 32 L" out [31:0] $end
$upscope $end
$scope module reg_s3 $end
$var wire 1 *" clear $end
$var wire 1 5 clk $end
$var wire 1 M" hold $end
$var wire 4 N" in [3:0] $end
$var reg 4 O" out [3:0] $end
$upscope $end
$scope module alu_ctl1 $end
$var wire 2 P" aluop [1:0] $end
$var wire 6 Q" funct [5:0] $end
$var reg 4 R" _funct [3:0] $end
$var reg 4 S" aluctl [3:0] $end
$upscope $end
$scope module alu1 $end
$var wire 32 T" a [31:0] $end
$var wire 32 U" add_ab [31:0] $end
$var wire 32 V" b [31:0] $end
$var wire 4 W" ctl [3:0] $end
$var wire 1 X" oflow $end
$var wire 1 Y" oflow_add $end
$var wire 1 Z" oflow_sub $end
$var wire 1 [" slt $end
$var wire 32 \" sub_ab [31:0] $end
$var wire 1 i zero $end
$var reg 32 ]" out [31:0] $end
$upscope $end
$scope module reg_zero_s3_s4 $end
$var wire 1 ^" clear $end
$var wire 1 5 clk $end
$var wire 1 _" hold $end
$var wire 1 i in $end
$var reg 1 `" out $end
$upscope $end
$scope module reg_alurslt $end
$var wire 1 a" clear $end
$var wire 1 5 clk $end
$var wire 1 b" hold $end
$var wire 32 c" in [31:0] $end
$var reg 32 d" out [31:0] $end
$upscope $end
$scope module reg_data2_s3 $end
$var wire 1 a" clear $end
$var wire 1 5 clk $end
$var wire 1 e" hold $end
$var wire 32 f" in [31:0] $end
$var reg 32 g" out [31:0] $end
$upscope $end
$scope module reg_wrreg $end
$var wire 1 a" clear $end
$var wire 1 5 clk $end
$var wire 1 h" hold $end
$var wire 5 i" in [4:0] $end
$var reg 5 j" out [4:0] $end
$upscope $end
$scope module branch_s3_s4 $end
$var wire 1 a" clear $end
$var wire 1 5 clk $end
$var wire 1 k" hold $end
$var wire 2 l" in [1:0] $end
$var reg 2 m" out [1:0] $end
$upscope $end
$scope module baddr_s3_s4 $end
$var wire 1 a" clear $end
$var wire 1 5 clk $end
$var wire 1 n" hold $end
$var wire 32 o" in [31:0] $end
$var reg 32 p" out [31:0] $end
$upscope $end
$scope module reg_jump_s4 $end
$var wire 1 a" clear $end
$var wire 1 5 clk $end
$var wire 1 q" hold $end
$var wire 1 C in $end
$var reg 1 r" out $end
$upscope $end
$scope module reg_jaddr_s4 $end
$var wire 1 a" clear $end
$var wire 1 5 clk $end
$var wire 1 s" hold $end
$var wire 32 t" in [31:0] $end
$var reg 32 u" out [31:0] $end
$upscope $end
$scope module reg_regwrite_s4 $end
$var wire 1 v" clear $end
$var wire 1 5 clk $end
$var wire 1 w" hold $end
$var wire 2 x" in [1:0] $end
$var reg 2 y" out [1:0] $end
$upscope $end
$scope module dm1 $end
$var wire 7 z" addr [6:0] $end
$var wire 1 5 clk $end
$var wire 1 G rd $end
$var wire 32 {" rdata [31:0] $end
$var wire 32 |" wdata [31:0] $end
$var wire 1 N wr $end
$upscope $end
$scope module reg_rdata_s4 $end
$var wire 1 }" clear $end
$var wire 1 5 clk $end
$var wire 1 ~" hold $end
$var wire 32 !# in [31:0] $end
$var reg 32 "# out [31:0] $end
$upscope $end
$scope module reg_alurslt_s4 $end
$var wire 1 ## clear $end
$var wire 1 5 clk $end
$var wire 1 $# hold $end
$var wire 32 %# in [31:0] $end
$var reg 32 &# out [31:0] $end
$upscope $end
$scope module reg_wrreg_s4 $end
$var wire 1 '# clear $end
$var wire 1 5 clk $end
$var wire 1 (# hold $end
$var wire 5 )# in [4:0] $end
$var reg 5 *# out [4:0] $end
$upscope $end
$upscope $end
$upscope $end
$enddefinitions $end
#0
$dumpvars
bx *#
bx )#
0(#
0'#
bx &#
bx %#
0$#
0##
bx "#
bx !#
0~"
0}"
bx |"
bx {"
bx z"
bx y"
bx x"
0w"
0v"
bx u"
bx t"
0s"
xr"
0q"
bx p"
bx o"
0n"
bx m"
bx l"
0k"
bx j"
bx i"
0h"
bx g"
bx f"
0e"
bx d"
bx c"
0b"
0a"
x`"
0_"
0^"
bx ]"
bx \"
x["
xZ"
xY"
xX"
b0 W"
bx V"
bx U"
bx T"
b0 S"
b0 R"
bx Q"
bx P"
bx O"
bx N"
0M"
bx L"
b0xxxxxxxxxxxxxxxxxxxxxxxxxx00 K"
0J"
xI"
0H"
bx G"
bx F"
0E"
bx D"
b0 C"
0B"
bx A"
b10001010 @"
0?"
1>"
1="
0<"
0;"
0:"
09"
08"
07"
06"
b10 5"
bx 4"
bx 3"
bx 2"
01"
bx 0"
bx /"
bx ."
bx -"
bx ,"
bx +"
0*"
bx )"
bx ("
0'"
bx &"
bx %"
bx $"
bx #"
bx ""
bx !"
bx ~
bx }
bx |
b100111101111011111111111111000 {
b100111101111011111111111111000 z
b0 y
bx x
b100 w
0v
0u
0t
0s
b0 r
bx q
bx p
b0 o
b0 n
0m
0l
0k
xj
xi
bx h
bx g
bx f
bx e
bx d
bx00 c
bx b
bx a
bx `
bx _
bx ^
bx ]
x\
x[
xZ
1Y
xX
1W
bx V
bx U
bx T
bx S
bx R
bx Q
b100 P
bx O
xN
xM
0L
xK
xJ
xI
0H
xG
xF
0E
xD
xC
0B
bx A
bx @
b0xxxxxxxxxxxxxxxxxxxxxxxxxx00 ?
bx >
b100111101111011111111111111000 =
bx <
bx ;
bx :
bx 9
bx 8
bx 7
bx 6
05
x4
x3
02
x1
x0
0/
bx .
bx -
bx ,
x+
bx *
0)
bx (
bx '
bx &
bx %
b10 $
b0 #
b0 "
0!
$end
#5
b11111111111111111111111111100100 ,
b11111111111111111111111111100100 F"
b11111111111111111111111111100000 c
b11111111111111111111111111111000 a
b11111111111111111111111111111000 -"
b1110111101111111111111100000 ?
b1110111101111111111111100000 K"
b11111 d
b1111111111111000 <
b11111 S
b1110111111 /"
b11101 _
b11101 ""
b11101 ]
b11101 !"
b11101 ("
b1001 O
b1001 4"
0+
1Z
b10 %
b10 P"
0I
0M
b1000 N"
0F
1X
03
b0 l"
00
b1000 P
b1000 w
b10101111101111100000000000000100 =
b10101111101111100000000000000100 z
b10101111101111100000000000000100 {
b100 x
b100 Q
b100 2"
b100111101111011111111111111000 |
b100111101111011111111111111000 >
b10001010 A"
b0 D"
0I"
0C
b0xxxxxxxxxxxxxxxxxxxxxxxxxx00 L"
b0xxxxxxxxxxxxxxxxxxxxxxxxxx00 @
b0xxxxxxxxxxxxxxxxxxxxxxxxxx00 t"
b100 r
b100 y
b1 "
1!
15
#10
0!
05
#15
0>"
0Y
16"
1)
b0 5"
b0 $
1<"
b10100001 @"
1L
b11111 f
b11111 i"
b10000 c
b1100 P
b1100 w
b11101000001111000000100101 =
b11101000001111000000100101 z
b11101000001111000000100101 {
04
01
0N
0G
0J
b10 x"
1[
b11111 T
b11101 `
b111000 ;
b111000 Q"
b100 a
b100 -"
b1110111110000000000000010000 ?
b1110111110000000000000010000 K"
b0 d
b100 <
b0 S
b1111000000 /"
b11110 _
b11110 ""
b101011 O
b101011 4"
b1000 r
b1000 y
b0xxxxxxxxxxxxxxxxxxxxxxxxxx00 u"
b0xxxxxxxxxxxxxxxxxxxxxxxxxx00 A
0r"
0D
b0 m"
b1000 O"
b1110111101111111111111100000 L"
b1110111101111111111111100000 @
b1110111101111111111111100000 t"
b11111111111111111111111111100100 G"
b11111111111111111111111111100100 -
b11111111111111111111111111100100 o"
b100 3"
b100 R
b1110111111 0"
b11111111111111111111111111111000 ."
b11111111111111111111111111111000 b
b11101 )"
b11101 ^
b10101111101111100000000000000100 |
b10101111101111100000000000000100 >
b1000 x
b11000 ,
b11000 F"
b1000 Q
b1000 2"
b10 "
1!
15
#20
0!
05
#25
1>"
1Y
0<"
0L
06"
0)
b10 5"
b10001010 @"
b10 $
b11111111111111111100000010010100 c
b0 f
b0 i"
b100 *
b100 V"
b10 S"
b10 #
b10 W"
b0 &"
bx00000000000000000000000000000000 +"
b0 8
b0 ~
b11111111111111111111000000100101 a
b11111111111111111111000000100101 -"
b1110100000111100000010010100 ?
b1110100000111100000010010100 K"
b1111000000100101 <
b11110 S
b11110 /"
b0 _
b0 ""
b0 O
b0 4"
b100 ;
b100 Q"
b0 T
b11110 `
1+
0Z
b0 %
b0 P"
b1 N"
1M
0K
1\
b10000 P
b10000 w
b100100000010000001000000001111 =
b100100000010000001000000001111 z
b100100000010000001000000001111 {
b1100 x
b11111111111111111100000010100000 ,
b11111111111111111100000010100000 F"
b1100 Q
b1100 2"
b11101000001111000000100101 |
b11101000001111000000100101 >
b100 ."
b100 b
b1111000000 0"
b1000 3"
b1000 R
b10100001 A"
b11000 G"
b11000 -
b11000 o"
b1110111110000000000000010000 L"
b1110111110000000000000010000 @
b1110111110000000000000010000 t"
b11111 j"
b11111 g
b11111 )#
b11111111111111111111111111100100 p"
b11111111111111111111111111100100 .
b1110111101111111111111100000 u"
b1110111101111111111111100000 A
b10 y"
b1100 r
b1100 y
b11 "
1!
15
#30
0!
05
#35
b1 S"
b1 #
b1 W"
b11110 f
b11110 i"
b1 R"
b0 q
b0 f"
b100000000111100 c
b10100 P
b10100 w
b100100000010010001000011110000 =
b100100000010010001000011110000 z
b100100000010010001000011110000 {
b0 %"
b0 6
b0 }
bx &"
b0xxxxxxxxxxxxxxxxxxxxxxxxxxxxxxxx +"
bx 8
bx ~
1N
b0 x"
0[
0+
1Z
b10 %
b10 P"
b1000 N"
0M
b11110 T
b0 `
b100101 ;
b100101 Q"
b0 *
b0 V"
b0 9
b1000000001111 a
b1000000001111 -"
b1000000100000000111100 ?
b1000000100000000111100 K"
b1000000001111 <
b10 S
b100000010 /"
b1000 _
b1000 ""
b0 ]
b0 !"
b0 ("
b1001 O
b1001 4"
b10000 r
b10000 y
b11111 *#
b11111 h
b11111 $"
b1110111110000000000000010000 u"
b1110111110000000000000010000 A
b11000 p"
b11000 .
b0 j"
b0 g
b0 )#
b1 O"
b1110100000111100000010010100 L"
b1110100000111100000010010100 @
b1110100000111100000010010100 t"
b11111111111111111100000010100000 G"
b11111111111111111100000010100000 -
b11111111111111111100000010100000 o"
b10001010 A"
b1100 3"
b1100 R
b11110 0"
b11111111111111111111000000100101 ."
b11111111111111111111000000100101 b
bx00000000000000000000000000000000 ,"
b100100000010000001000000001111 |
b100100000010000001000000001111 >
b10000 x
b100000001001100 ,
b100000001001100 F"
b10000 Q
b10000 2"
b100 "
1!
15
#40
0!
05
#45
b0 ]"
1i
b0 c"
b0 &
b0 o
b0 n
xX"
x["
xY"
xZ"
bx *
bx V"
b0 S"
b0 #
b0 W"
b100001111000000 c
bx q
bx f"
b0 p
b0 T"
bx \"
bx U"
b0 R"
b10 f
b10 i"
b1000011110000 a
b1000011110000 -"
b1001000100001111000000 ?
b1001000100001111000000 K"
b11 d
b1000011110000 <
b100100010 /"
b1001 _
b1001 ""
bx 9
b0 7
b1111 ;
b1111 Q"
b10 T
b1000 `
0N
b10 x"
1[
bx U
bx {"
bx !#
0\
b11000 P
b11000 w
b1000000000001100000100101 =
b1000000000001100000100101 z
b1000000000001100000100101 {
b10100 x
b100001111010100 ,
b100001111010100 F"
b10100 Q
b10100 2"
b100100000010010001000011110000 |
b100100000010010001000011110000 >
b0 )"
b0 ^
b0xxxxxxxxxxxxxxxxxxxxxxxxxxxxxxxx ,"
b1000000001111 ."
b1000000001111 b
b100000010 0"
b10000 3"
b10000 R
b100000001001100 G"
b100000001001100 -
b100000001001100 o"
b1000000100000000111100 L"
b1000000100000000111100 @
b1000000100000000111100 t"
b1000 O"
b0 g"
b0 :
b0 |"
b11110 j"
b11110 g
b11110 )#
b11111111111111111100000010100000 p"
b11111111111111111100000010100000 .
b1110100000111100000010010100 u"
b1110100000111100000010010100 A
b0 y"
b0 *#
b0 h
b0 $"
b10100 r
b10100 y
b101 "
1!
15
#50
0!
05
#55
bx ]"
xi
bx c"
bx &
b10 S"
b10 #
b10 W"
b0 z"
b10 R"
b110000010010100 c
b11100 P
b11100 w
b1001000000001000000100101 =
b1001000000001000000100101 z
b1001000000001000000100101 {
bx %"
bx 6
bx }
b0 &"
bx00000000000000000000000000000000 +"
b0 8
b0 ~
1\
b0 '
b0 %#
b1001 `
b110000 ;
b110000 Q"
b1100000100101 a
b1100000100101 -"
b100000000000110000010010100 ?
b100000000000110000010010100 K"
b0 d
b1100000100101 <
b11 S
b11 /"
b0 _
b0 ""
b1000 ]
b1000 !"
b1000 ("
b0 O
b0 4"
b11000 r
b11000 y
b11110 *#
b11110 h
b11110 $"
b10 y"
b1000000100000000111100 u"
b1000000100000000111100 A
b100000001001100 p"
b100000001001100 .
b10 j"
b10 g
b10 )#
bx g"
bx :
bx |"
b0 d"
1`"
1j
b1001000100001111000000 L"
b1001000100001111000000 @
b1001000100001111000000 t"
b100001111010100 G"
b100001111010100 -
b100001111010100 o"
b10100 3"
b10100 R
b100100010 0"
b1000011110000 ."
b1000011110000 b
b1000000000001100000100101 |
b1000000000001100000100101 >
b11000 x
b110000010101100 ,
b110000010101100 F"
b11000 Q
b11000 2"
b110 "
1!
15
#60
0!
05
#65
b1 S"
b1 #
b1 W"
b0 *
b0 V"
b100000010010100 c
b1 R"
b11 f
b11 i"
bx z"
bx p
bx T"
b0 q
b0 f"
b1000000100101 a
b1000000100101 -"
b100100000000100000010010100 ?
b100100000000100000010010100 K"
b1000000100101 <
b10 /"
b10 S
b1001 ]
b1001 !"
b1001 ("
b0 9
bx 7
b100101 ;
b100101 Q"
b11 T
b0 `
bx '
bx %#
b0 e
b0 #"
b100000 P
b100000 w
b11000100001000000100101 =
b11000100001000000100101 z
b11000100001000000100101 {
b11100 x
b100000010110000 ,
b100000010110000 F"
b11100 Q
b11100 2"
b1001000000001000000100101 |
b1001000000001000000100101 >
b1000 )"
b1000 ^
bx00000000000000000000000000000000 ,"
b1100000100101 ."
b1100000100101 b
b11 0"
b11000 3"
b11000 R
b110000010101100 G"
b110000010101100 -
b110000010101100 o"
b100000000000110000010010100 L"
b100000000000110000010010100 @
b100000000000110000010010100 t"
x`"
xj
bx d"
b100001111010100 p"
b100001111010100 .
b1001000100001111000000 u"
b1001000100001111000000 A
b0 &#
b0 (
b10 *#
b10 h
b10 $"
b11100 r
b11100 y
b111 "
1!
15
#70
0!
05
#75
bx &"
bx +"
bx 8
bx ~
b10 f
b10 i"
b100100 P
b100100 w
b10000000101000000100101 =
b10000000101000000100101 z
b10000000101000000100101 {
bx e
bx #"
b10 T
b1100010000100000010010100 ?
b1100010000100000010010100 K"
b1000010 /"
b10 _
b10 ""
b11 ]
b11 !"
b11 ("
b100000 r
b100000 y
bx &#
bx (
b100000000000110000010010100 u"
b100000000000110000010010100 A
b110000010101100 p"
b110000010101100 .
b11 j"
b11 g
b11 )#
b0 g"
b0 :
b0 |"
b100100000000100000010010100 L"
b100100000000100000010010100 @
b100100000000100000010010100 t"
b100000010110000 G"
b100000010110000 -
b100000010110000 o"
b11100 3"
b11100 R
b10 0"
b1000000100101 ."
b1000000100101 b
b1001 )"
b1001 ^
b11000100001000000100101 |
b11000100001000000100101 >
b100000 x
b100000010110100 ,
b100000010110100 F"
b100000 Q
b100000 2"
b1000 "
1!
15
#80
0!
05
#85
b1 o
b10 n
bx *
bx V"
b10100000010010100 c
b0 &"
bx00000000000000000000000000000000 +"
b0 8
b0 ~
bx q
bx f"
b101000000100101 a
b101000000100101 -"
b1000000010100000010010100 ?
b1000000010100000010010100 K"
b101000000100101 <
b1010 S
b1010 /"
b0 _
b0 ""
b10 ]
b10 !"
b10 ("
bx 9
b10 `
b101000 P
b101000 w
b0 =
b0 z
b0 {
b100100 x
b10100000010111000 ,
b10100000010111000 F"
b100100 Q
b100100 2"
b10000000101000000100101 |
b10000000101000000100101 >
b11 )"
b11 ^
bx ,"
b1000010 0"
b100000 3"
b100000 R
b100000010110100 G"
b100000010110100 -
b100000010110100 o"
b1100010000100000010010100 L"
b1100010000100000010010100 @
b1100010000100000010010100 t"
b10 j"
b10 g
b10 )#
b100000010110000 p"
b100000010110000 .
b100100000000100000010010100 u"
b100100000000100000010010100 A
b11 *#
b11 h
b11 $"
b100100 r
b100100 y
b1001 "
1!
15
#90
0!
05
#95
b0 *
b0 V"
b0 q
b0 f"
b0 o
b1 n
b1010 f
b1010 i"
b0 c
b101100 P
b101100 w
b11110000001110100000100101 =
b11110000001110100000100101 z
b11110000001110100000100101 {
b1010 T
b0 `
b0 9
b0 %"
b0 +"
b0 6
b0 }
b0 a
b0 -"
b0 ?
b0 K"
b0 <
b0 /"
b0 S
b0 ]
b0 !"
b0 ("
b101000 r
b101000 y
b10 *#
b10 h
b10 $"
b1100010000100000010010100 u"
b1100010000100000010010100 A
b100000010110100 p"
b100000010110100 .
bx g"
bx :
bx |"
b1000000010100000010010100 L"
b1000000010100000010010100 @
b1000000010100000010010100 t"
b10100000010111000 G"
b10100000010111000 -
b10100000010111000 o"
b100100 3"
b100100 R
b1010 0"
b101000000100101 ."
b101000000100101 b
bx00000000000000000000000000000000 ,"
b10 )"
b10 ^
b0 |
b0 >
b101000 x
b101000 ,
b101000 F"
b101000 Q
b101000 2"
b1010 "
1!
15
#100
0!
05
#105
b0 ]"
1i
b0 c"
b0 &
0X"
0["
0Y"
0Z"
b0 p
b0 T"
b0 \"
b0 U"
b0 n
b10 S"
b10 #
b10 W"
b11111111111111111010000010010100 c
bx %"
bx00000000000000000000000000000000 +"
bx 6
bx }
b10 R"
b0 f
b0 i"
b11111111111111111110100000100101 a
b11111111111111111110100000100101 -"
b1111000000111010000010010100 ?
b1111000000111010000010010100 K"
b1110100000100101 <
b11101 /"
b11101 S
b11110 ]
b11110 !"
b11110 ("
b0 7
b0 ;
b0 Q"
b0 T
b110000 P
b110000 w
b10001111101111100000000000000100 =
b10001111101111100000000000000100 z
b10001111101111100000000000000100 {
b101100 x
b11111111111111111010000011000000 ,
b11111111111111111010000011000000 F"
b101100 Q
b101100 2"
b11110000001110100000100101 |
b11110000001110100000100101 >
b0 )"
b0 ^
b0 ,"
b0 ."
b0 b
b0 0"
b101000 3"
b101000 R
b101000 G"
b101000 -
b101000 o"
b0 L"
b0 @
b0 t"
b0 g"
b0 :
b0 |"
b1010 j"
b1010 g
b1010 )#
b10100000010111000 p"
b10100000010111000 .
b1000000010100000010010100 u"
b1000000010100000010010100 A
b101100 r
b101100 y
b1011 "
1!
15
#110
0!
05
#115
bx ]"
xi
bx c"
bx &
16"
1)
b0 5"
b0 $
1;"
1H
0="
0W
1:"
b1010011 @"
1E
b1 o
xX"
xY"
xZ"
x["
b1 S"
b1 #
b1 W"
b0 z"
b11101 f
b11101 i"
b1 R"
bx p
bx T"
bx \"
bx U"
b10000 c
b110100 P
b110100 w
b100111101111010000000000001000 =
b100111101111010000000000001000 z
b100111101111010000000000001000 {
bx &"
bx +"
bx 8
bx ~
b0 '
b0 %#
b11101 T
b100101 ;
b100101 Q"
bx 7
b100 a
b100 -"
b1110111110000000000000010000 ?
b1110111110000000000000010000 K"
b100 <
b0 S
b1111000000 /"
b11110 _
b11110 ""
b11101 ]
b11101 !"
b11101 ("
b100011 O
b100011 4"
b110000 r
b110000 y
b1010 *#
b1010 h
b1010 $"
b0 u"
b0 A
b101000 p"
b101000 .
b0 j"
b0 g
b0 )#
b0 d"
1`"
1j
b1111000000111010000010010100 L"
b1111000000111010000010010100 @
b1111000000111010000010010100 t"
b11111111111111111010000011000000 G"
b11111111111111111010000011000000 -
b11111111111111111010000011000000 o"
b101100 3"
b101100 R
b11101 0"
b11111111111111111110100000100101 ."
b11111111111111111110100000100101 b
bx00000000000000000000000000000000 ,"
b11110 )"
b11110 ^
b10001111101111100000000000000100 |
b10001111101111100000000000000100 >
b110000 x
b1000000 ,
b1000000 F"
b110000 Q
b110000 2"
b1100 "
1!
15
#120
0!
05
#125
1="
1W
0;"
0H
0:"
0E
06"
0)
b10 5"
b10001010 @"
b10 $
b0 o
b1 n
b100000 c
b0 R"
b100 *
b100 V"
b10 S"
b10 #
b10 W"
b11110 f
b11110 i"
bx z"
bx q
bx f"
b1000 a
b1000 -"
b1110111101000000000000100000 ?
b1110111101000000000000100000 K"
b1000 <
b1110100000 /"
b11101 _
b11101 ""
b1001 O
b1001 4"
bx 9
b100 ;
b100 Q"
b0 T
b11110 `
1+
b0 %
b0 P"
1I
b1110 N"
1F
0X
bx '
bx %#
b0 e
b0 #"
b111000 P
b111000 w
b11111000000000000000001000 =
b11111000000000000000001000 z
b11111000000000000000001000 {
b110100 x
b1010100 ,
b1010100 F"
b110100 Q
b110100 2"
b100111101111010000000000001000 |
b100111101111010000000000001000 >
b11101 )"
b11101 ^
bx ,"
b100 ."
b100 b
b1111000000 0"
b110000 3"
b110000 R
b1010011 A"
b1000000 G"
b1000000 -
b1000000 o"
b1110111110000000000000010000 L"
b1110111110000000000000010000 @
b1110111110000000000000010000 t"
x`"
xj
bx d"
b11101 j"
b11101 g
b11101 )#
b11111111111111111010000011000000 p"
b11111111111111111010000011000000 .
b1111000000111010000010010100 u"
b1111000000111010000010010100 A
b0 &#
b0 (
b0 *#
b0 h
b0 $"
b110100 r
b110100 y
b1101 "
1!
15
#130
0!
05
#135
b10 o
b10 n
b0 S"
b0 #
b0 W"
b0 f
b0 i"
b111100 P
b111100 w
b0 =
b0 z
b0 {
b0 &"
bx00000000000000000000000000000000 +"
b0 8
b0 ~
bx e
bx #"
1G
b11 x"
1J
0+
b10 %
b10 P"
0I
b1000 N"
0F
1X
b11101 `
b1000 ;
b1000 Q"
bx *
bx V"
b1111100000000000000000100000 ?
b1111100000000000000000100000 K"
b0 /"
b0 _
b0 ""
b11111 ]
b11111 !"
b11111 ("
b0 O
b0 4"
b111000 r
b111000 y
b11101 *#
b11101 h
b11101 $"
bx &#
bx (
b1110111110000000000000010000 u"
b1110111110000000000000010000 A
b1000000 p"
b1000000 .
b11110 j"
b11110 g
b11110 )#
bx g"
bx :
bx |"
b1110 O"
b1110111101000000000000100000 L"
b1110111101000000000000100000 @
b1110111101000000000000100000 t"
b1010100 G"
b1010100 -
b1010100 o"
b10001010 A"
b110100 3"
b110100 R
b1110100000 0"
b1000 ."
b1000 b
b11111000000000000000001000 |
b11111000000000000000001000 >
b111000 x
b1011000 ,
b1011000 F"
b111000 Q
b111000 2"
b1110 "
1!
15
#140
0!
05
#145
b1 o
b0 n
b0 c
b0 %"
b0 +"
b0 6
b0 }
b0 a
b0 -"
b0 ?
b0 K"
b0 <
b0 ]
b0 !"
b0 ("
b0 9
b0 `
0G
b10 x"
0J
1K
b1000000 P
b1000000 w
b111100 x
b111100 ,
b111100 F"
b111100 Q
b111100 2"
b0 |
b0 >
b11111 )"
b11111 ^
bx00000000000000000000000000000000 ,"
b0 0"
b111000 3"
b111000 R
b1011000 G"
b1011000 -
b1011000 o"
b1111100000000000000000100000 L"
b1111100000000000000000100000 @
b1111100000000000000000100000 t"
b1000 O"
b0 j"
b0 g
b0 )#
b1010100 p"
b1010100 .
b1110111101000000000000100000 u"
b1110111101000000000000100000 A
b11 y"
b11110 *#
b11110 h
b11110 $"
b111100 r
b111100 y
b1111 "
1!
15
