MIPS/wave.vcd
$date
	Sun Jun 14 17:32:01 2020
$end
$version
	Icarus Verilog
$end
$timescale
	1s
$end
$scope module mips_testbench $end
$var reg 1 ! clock $end
$scope module test $end
$var wire 26 " address [25:0] $end
$var wire 1 # branch_signal $end
$var wire 1 $ clock $end
$var wire 6 % funct [5:0] $end
$var wire 16 & immediate [15:0] $end
$var wire 32 ' instruction [31:0] $end
$var wire 32 ( memory_read_data [31:0] $end
$var wire 6 ) opcode [5:0] $end
$var wire 5 * rd [4:0] $end
$var wire 1 + read_mem_signal $end
$var wire 1 , read_reg_signal $end
$var wire 1 - regDst_signal $end
$var wire 5 . rs [4:0] $end
$var wire 32 / rs_content [31:0] $end
$var wire 5 0 rt [4:0] $end
$var wire 32 1 rt_content [31:0] $end
$var wire 5 2 shamt [4:0] $end
$var wire 32 3 write_data [31:0] $end
$var wire 1 4 write_mem_signal $end
$var wire 1 5 write_reg_signal $end
$var reg 32 6 PC [31:0] $end
$scope module inst_mem $end
$var wire 32 7 program_counter [31:0] $end
$var reg 32 8 instruction [31:0] $end
$upscope $end
$scope module parse $end
$var wire 32 9 instruction [31:0] $end
$var wire 6 : opcode [5:0] $end
$var wire 32 ; p_count [31:0] $end
$var reg 26 < address [25:0] $end
$var reg 6 = funct [5:0] $end
$var reg 16 > immediate [15:0] $end
$var reg 5 ? rd [4:0] $end
$var reg 5 @ rs [4:0] $end
$var reg 5 A rt [4:0] $end
$var reg 5 B shamt [4:0] $end
$upscope $end
$scope module signals $end
$var wire 6 C funct [5:0] $end
$var wire 6 D opcode [5:0] $end
$var reg 1 E Branch $end
$var reg 1 F MemRead $end
$var reg 1 G MemWrite $end
$var reg 1 H RegDst $end
$var reg 1 I RegRead $end
$var reg 1 J RegWrite $end
$upscope $end
$scope module alu_process $end
$var wire 6 K ALU_control [5:0] $end
$var wire 16 L immediate [15:0] $end
$var wire 6 M opcode [5:0] $end
$var wire 32 N rs_content [31:0] $end
$var wire 32 O rt_content [31:0] $end
$var wire 5 P shamt [4:0] $end
$var reg 32 Q ALU_result [31:0] $end
$var integer 32 R i [31:0] $end
$var reg 1 S sig_branch $end
$var reg 32 T signExtend [31:0] $end
$var reg 32 U signed_rs [31:0] $end
$var reg 32 V signed_rt [31:0] $end
$var reg 32 W temp [31:0] $end
$var reg 32 X zeroExtend [31:0] $end
$upscope $end
$scope module dataMemory $end
$var wire 32 Y address [31:0] $end
$var wire 6 Z opcode [5:0] $end
$var wire 1 + sig_mem_read $end
$var wire 1 4 sig_mem_write $end
$var wire 32 [ write_data [31:0] $end
$var reg 32 \ read_data [31:0] $end
$upscope $end
$scope module contents $end
$var wire 1 $ clk $end
$var wire 6 ] opcode [5:0] $end
$var wire 5 ^ read_reg_1 [4:0] $end
$var wire 5 _ read_reg_2 [4:0] $end
$var wire 1 - signal_regDst $end
$var wire 1 , signal_regRead $end
$var wire 1 5 signal_regWrite $end
$var wire 32 ` write_data [31:0] $end
$var wire 5 a write_reg [4:0] $end
$var reg 32 b read_data_1 [31:0] $end
$var reg 32 c read_data_2 [31:0] $end
$upscope $end
$upscope $end
$upscope $end
$enddefinitions $end
#0
$dumpvars
bx c
bx b
bx a
bx `
b1000 _
b0 ^
b1000 ]
bx \
bx [
b1000 Z
bx Y
b100000 X
bx W
bx V
bx U
b100000 T
xS
bx R
bx Q
bx P
bx O
bx N
b1000 M
b100000 L
bx K
1J
1I
0H
0G
0F
0E
b1000 D
bx C
bx B
b1000 A
b0 @
bx ?
b100000 >
bx =
bx <
b0 ;
b1000 :
b100000000010000000000000100000 9
b100000000010000000000000100000 8
b0 7
b0 6
15
04
bx 3
bx 2
bx 1
b1000 0
bx /
b0 .
0-
1,
0+
bx *
b1000 )
bx (
b100000000010000000000000100000 '
b100000 &
bx %
0$
x#
bx "
0!
$end
#50
b110111 Q
b110111 3
b110111 Y
b110111 `
b110111 X
b110111 T
b0 V
b0 U
b0 c
b0 1
b0 O
b0 [
b0 b
b0 /
b0 N
b110111 >
b110111 &
b110111 L
b1001 A
b1001 0
b1001 _
b100000000010010000000000110111 8
b100000000010010000000000110111 '
b100000000010010000000000110111 9
b1 6
b1 7
b1 ;
1!
1$
#100
0!
0$
#150
1H
1-
1I
1,
0J
05
b110111 V
b11 U
b110111 c
b110111 1
b110111 O
b110111 [
b11 b
b11 /
b11 N
b0 )
b0 :
b0 D
b0 M
b0 Z
b0 ]
b1000000000100100 >
b1000000000100100 &
b1000000000100100 L
b1000 @
b1000 .
b1000 ^
b1000010011000000000100100 8
b1000010011000000000100100 '
b1000010011000000000100100 9
b10 6
b10 7
b10 ;
1!
1$
#200
0!
0$
#250
1J
15
1H
1-
1I
1,
b100101 =
b100101 %
b100101 C
b100101 K
b10000 ?
b10000 *
b10000 a
b0 B
b0 2
b0 P
b1000010011000000000100101 8
b1000010011000000000100101 '
b1000010011000000000100101 9
b11 6
b11 7
b11 ;
1!
1$
#300
0!
0$
#350
b11111111111111111000000000100100 Q
b11111111111111111000000000100100 3
b11111111111111111000000000100100 Y
b11111111111111111000000000100100 `
b1000000000100100 X
b11111111111111111000000000100100 T
b11111111111111111111100110110111 V
b0 U
1G
14
0H
0-
1I
1,
0J
05
b11111111111111111111100110110111 c
b11111111111111111111100110110111 1
b11111111111111111111100110110111 O
b11111111111111111111100110110111 [
b0 b
b0 /
b0 N
b101011 )
b101011 :
b101011 D
b101011 M
b101011 Z
b101011 ]
b100 =
b100 %
b100 C
b100 K
b0 @
b0 .
b0 ^
b10000 A
b10000 0
b10000 _
b0 ?
b0 *
b0 a
b10101100000100000000000000000100 8
b10101100000100000000000000000100 '
b10101100000100000000000000000100 9
b100 6
b100 7
b100 ;
1!
1$
#400
0!
0$
#450
b1000 Q
b1000 3
b1000 Y
b1000 `
b1000 X
b1000 T
b11 V
b11 c
b11 1
b11 O
b11 [
b1000 >
b1000 &
b1000 L
b1000 A
b1000 0
b1000 _
b10101100000010000000000000001000 8
b10101100000010000000000000001000 '
b10101100000010000000000000001000 9
b101 6
b101 7
b101 ;
1!
1$
#500
0!
0$
#550
1J
15
1H
1-
1I
1,
0G
04
b110111 V
b11 U
b110111 c
b110111 1
b110111 O
b110111 [
b11 b
b11 /
b11 N
b0 )
b0 :
b0 D
b0 M
b0 Z
b0 ]
b1000100000100000 >
b1000100000100000 &
b1000100000100000 L
b1000 @
b1000 .
b1000 ^
b1001 A
b1001 0
b1001 _
b1000010011000100000100000 8
b1000010011000100000100000 '
b1000010011000100000100000 9
b110 6
b110 7
b110 ;
1!
1$
#600
0!
0$
#650
b11111111111111111111111111001100 Q
b11111111111111111111111111001100 3
b11111111111111111111111111001100 Y
b11111111111111111111111111001100 `
1H
1-
1I
1,
1J
15
b100010 =
b100010 %
b100010 C
b100010 K
b10010 ?
b10010 *
b10010 a
b1000010011001000000100010 8
b1000010011001000000100010 '
b1000010011001000000100010 9
b111 6
b111 7
b111 ;
1!
1$
#700
0!
0$
#750
0S
b111000 Q
b111000 3
b111000 Y
b111000 `
b1000100000100000 X
b11111111111111111000100000100000 T
b11111111111111111111111111001100 V
b100 U
1E
0H
0-
1I
1,
0J
05
b11111111111111111111111111001100 c
b11111111111111111111111111001100 1
b11111111111111111111111111001100 O
b11111111111111111111111111001100 [
b100 b
b100 /
b100 N
b100 )
b100 :
b100 D
b100 M
b100 Z
b100 ]
b1001 =
b1001 %
b1001 C
b1001 K
b10001 @
b10001 .
b10001 ^
b10010 A
b10010 0
b10010 _
b0 ?
b0 *
b0 a
b10010001100100000000000001001 8
b10010001100100000000000001001 '
b10010001100100000000000001001 9
b1000 6
b1000 7
b1000 ;
1!
1$
#800
0!
0$
#850
b100 \
b100 (
1F
1+
1J
15
0E
0#
1I
1,
b100 Q
b100 3
b100 Y
b100 `
b100 X
b100 T
b100 V
b0 U
b100 c
b100 1
b100 O
b100 [
b0 b
b0 /
b0 N
b100011 )
b100011 :
b100011 D
b100011 M
b100011 Z
b100011 ]
b100 >
b100 &
b100 L
b0 @
b0 .
b0 ^
b10001 A
b10001 0
b10001 _
b10001100000100010000000000000100 8
b10001100000100010000000000000100 '
b10001100000100010000000000000100 9
b1001 6
b1001 7
b1001 ;
1!
1$
#900
0!
0$
#950
1I
1,
1J
15
0F
0+
b1001000 X
b1001000 T
b11111111111111111111111111001100 V
b100 U
b11111111111111111111111111001100 c
b11111111111111111111111111001100 1
b11111111111111111111111111001100 O
b11111111111111111111111111001100 [
b100 b
b100 /
b100 N
b1100 )
b1100 :
b1100 D
b1100 M
b1100 Z
b1100 ]
b1001000 >
b1001000 &
b1001000 L
b10001 @
b10001 .
b10001 ^
b10010 A
b10010 0
b10010 _
b110010001100100000000001001000 8
b110010001100100000000001001000 '
b110010001100100000000001001000 9
b1010 6
b1010 7
b1010 ;
1!
1$
#1000
0!
0$
#1050
1E
x#
1I
1,
0J
05
b111000 Q
b111000 3
b111000 Y
b111000 `
b1001 X
b1001 T
b100 )
b100 :
b100 D
b100 M
b100 Z
b100 ]
b1001 >
b1001 &
b1001 L
b10010001100100000000000001001 8
b10010001100100000000000001001 '
b10010001100100000000000001001 9
b1011 6
b1011 7
b1011 ;
1!
1$
#1100
0!
0$
#1150
b11 \
b11 (
1F
1+
1J
15
0E
0#
1I
1,
b1000 Q
b1000 3
b1000 Y
b1000 `
b1000 X
b1000 T
b1000 V
b0 U
b1000 c
b1000 1
b1000 O
b1000 [
b0 b
b0 /
b0 N
b100011 )
b100011 :
b100011 D
b100011 M
b100011 Z
b100011 ]
b1000 >
b1000 &
b1000 L
b0 @
b0 .
b0 ^
b10011 A
b10011 0
b10011 _
b10001100000100110000000000001000 8
b10001100000100110000000000001000 '
b10001100000100110000000000001000 9
b1100 6
b1100 7
b1100 ;
1!
1$
#1200
0!
0$
#1250
1E
x#
1I
1,
0J
05
0F
0+
b11111111111111111111100110101111 Q
b11111111111111111111100110101111 3
b11111111111111111111100110101111 Y
b11111111111111111111100110101111 `
b1010 X
b1010 T
b11111111111111111111100110110111 U
b11111111111111111111100110110111 b
b11111111111111111111100110110111 /
b11111111111111111111100110110111 N
b100 )
b100 :
b100 D
b100 M
b100 Z
b100 ]
b1010 >
b1010 &
b1010 L
b10000 @
b10000 .
b10000 ^
b10010000100110000000000001010 8
b10010000100110000000000001010 '
b10010000100110000000000001010 9
b1101 6
b1101 7
b1101 ;
1!
1$
#1300
0!
0$
#1350
1J
15
1H
1-
0E
0#
1I
1,
b100 V
b11111111111111111111111111001100 U
b100 c
b100 1
b100 O
b100 [
b11111111111111111111111111001100 b
b11111111111111111111111111001100 /
b11111111111111111111111111001100 N
b0 )
b0 :
b0 D
b0 M
b0 Z
b0 ]
b1010000000101010 >
b1010000000101010 &
b1010000000101010 L
b10010 @
b10010 .
b10010 ^
b10001 A
b10001 0
b10001 _
b10010100011010000000101010 8
b10010100011010000000101010 '
b10010100011010000000101010 9
b1110 6
b1110 7
b1110 ;
1!
1$
#1400
0!
0$
#1450
b100 Q
b100 3
b100 Y
b100 `
b0 V
b100 U
1H
1-
1I
1,
1J
15
b0 c
b0 1
b0 O
b0 [
b100 b
b100 /
b100 N
b100000 =
b100000 %
b100000 C
b100000 K
b10001 @
b10001 .
b10001 ^
b0 A
b0 0
b0 _
b10010 ?
b10010 *
b10010 a
b10001000001001000000100000 8
b10001000001001000000100000 '
b10001000001001000000100000 9
b1111 6
b1111 7
b1111 ;
1!
1$
#1500
0!
0$
#1550
b11111111111111111010000000101010 Q
b11111111111111111010000000101010 3
b11111111111111111010000000101010 Y
b11111111111111111010000000101010 `
b1010000000101010 X
b11111111111111111010000000101010 T
b11 V
b0 U
0H
0-
1I
1,
1J
15
b11 c
b11 1
b11 O
b11 [
b0 b
b0 /
b0 N
b1000 )
b1000 :
b1000 D
b1000 M
b1000 Z
b1000 ]
b0 =
b0 %
b0 C
b0 K
b0 @
b0 .
b0 ^
b1000 A
b1000 0
b1000 _
b0 ?
b0 *
b0 a
b100000000010000000000000000000 8
b100000000010000000000000000000 '
b100000000010000000000000000000 9
b10000 6
b10000 7
b10000 ;
1!
1$
#1600
0!
0$
#1650
b0 Q
b0 3
b0 Y
b0 `
b0 X
b0 T
b110111 V
b110111 c
b110111 1
b110111 O
b110111 [
b0 >
b0 &
b0 L
b1001 A
b1001 0
b1001 _
b100000000010010000000000000000 8
b100000000010010000000000000000 '
b100000000010010000000000000000 9
b10001 6
b10001 7
b10001 ;
1!
1$
#1700
0!
0$
#1750
b1 Q
b1 3
b1 Y
b1 `
b1 X
b1 T
b11111111111111111010000000101010 V
b11111111111111111010000000101010 c
b11111111111111111010000000101010 1
b11111111111111111010000000101010 O
b11111111111111111010000000101010 [
b1 >
b1 &
b1 L
b1000 A
b1000 0
b1000 _
b100000000010000000000000000001 8
b100000000010000000000000000001 '
b100000000010000000000000000001 9
b10010 6
b10010 7
b10010 ;
1!
1$
#1800
0!
0$
#1850
b0 V
b0 c
b0 1
b0 O
b0 [
b1001 A
b1001 0
b1001 _
b100000000010010000000000000001 8
b100000000010010000000000000001 '
b100000000010010000000000000001 9
b10011 6
b10011 7
b10011 ;
1!
1$
#1900
0!
0$
#1950
b10 Q
b10 3
b10 Y
b10 `
b10 X
b10 T
b1 V
b1 c
b1 1
b1 O
b1 [
b10 >
b10 &
b10 L
b1000 A
b1000 0
b1000 _
b100000000010000000000000000010 8
b100000000010000000000000000010 '
b100000000010000000000000000010 9
b10100 6
b10100 7
b10100 ;
1!
1$
#2000
0!
0$
#2050
b0 V
b0 c
b0 1
b0 O
b0 [
b1001 A
b1001 0
b1001 _
b100000000010010000000000000010 8
b100000000010010000000000000010 '
b100000000010010000000000000010 9
b10101 6
b10101 7
b10101 ;
1!
1$
#2100
0!
0$
#2150
b11 Q
b11 3
b11 Y
b11 `
b11 X
b11 T
b10 V
b10 c
b10 1
b10 O
b10 [
b11 >
b11 &
b11 L
b1000 A
b1000 0
b1000 _
b100000000010000000000000000011 8
b100000000010000000000000000011 '
b100000000010000000000000000011 9
b10110 6
b10110 7
b10110 ;
1!
1$
#2200
0!
0$
#2250
b0 V
b0 c
b0 1
b0 O
b0 [
b1001 A
b1001 0
b1001 _
b100000000010010000000000000011 8
b100000000010010000000000000011 '
b100000000010010000000000000011 9
b10111 6
b10111 7
b10111 ;
1!
1$
#2300
0!
0$
#2350
1I
1,
1J
15
b11111 X
b11111 T
b10 )
b10 :
b10 D
b10 M
b10 Z
b10 ]
b11111 >
b11111 &
b11111 L
b0 A
b0 0
b0 _
b1000000000000000000000011111 8
b1000000000000000000000011111 '
b1000000000000000000000011111 9
b11000 6
b11000 7
b11000 ;
1!
1$
#2400
0!
0$
#2450
0I
0,
0J
05
bx )
bx :
bx D
bx M
bx Z
bx ]
bx 8
bx '
bx 9
b0xxxxxxxxxxxxxxxxxxxxxxxxxx 6
b0xxxxxxxxxxxxxxxxxxxxxxxxxx 7
b0xxxxxxxxxxxxxxxxxxxxxxxxxx ;
1!
1$
#2500
0!
0$
#2550
bx 6
bx 7
bx ;
1!
1$
